<?xml version="1.0" encoding="UTF-8" standalone="no"?>
<svg
   xmlns:dc="http://purl.org/dc/elements/1.1/"
   xmlns:cc="http://creativecommons.org/ns#"
   xmlns:rdf="http://www.w3.org/1999/02/22-rdf-syntax-ns#"
   xmlns:svg="http://www.w3.org/2000/svg"
   xmlns="http://www.w3.org/2000/svg"
   xmlns:sodipodi="http://sodipodi.sourceforge.net/DTD/sodipodi-0.dtd"
   xmlns:inkscape="http://www.inkscape.org/namespaces/inkscape"
   width="215.5mm"
   height="90.5mm"
   viewBox="0 0 215.5 90.5"
   version="1.1"
   id="svg8"
   inkscape:version="1.0 (4035a4fb49, 2020-05-01)"
   sodipodi:docname="explaining-with-a-simulation.svg">
  <defs
     id="defs2" />
  <sodipodi:namedview
     id="base"
     pagecolor="#ffffff"
     bordercolor="#666666"
     borderopacity="1.0"
     inkscape:pageopacity="0.0"
     inkscape:pageshadow="2"
     inkscape:zoom="1.979899"
     inkscape:cx="176.43502"
     inkscape:cy="177.44063"
     inkscape:document-units="mm"
     inkscape:current-layer="g1069"
     inkscape:document-rotation="0"
     showgrid="true"
     inkscape:window-width="1918"
     inkscape:window-height="1059"
     inkscape:window-x="0"
     inkscape:window-y="0"
     inkscape:window-maximized="1"
     fit-margin-top="5"
     fit-margin-left="5"
     fit-margin-bottom="5"
     fit-margin-right="5">
    <inkscape:grid
       type="xygrid"
       id="grid833"
       units="mm"
       spacingx="1.25"
       spacingy="1.25"
       empspacing="4"
       originx="0.25000001"
       originy="0.25" />
  </sodipodi:namedview>
  <metadata
     id="metadata5">
    <rdf:RDF>
      <cc:Work
         rdf:about="">
        <dc:format>image/svg+xml</dc:format>
        <dc:type
           rdf:resource="http://purl.org/dc/dcmitype/StillImage" />
        <dc:title />
      </cc:Work>
    </rdf:RDF>
  </metadata>
  <g
     inkscape:label="Layer 1"
     inkscape:groupmode="layer"
     id="layer1"
     transform="translate(0.25,0.25)">
    <text
       xml:space="preserve"
       style="font-size:4.99999px;line-height:100%;font-family:Charter;-inkscape-font-specification:Charter;letter-spacing:0px;word-spacing:0px;writing-mode:lr-tb;fill:none;stroke:#000000;stroke-width:0.264583px;stroke-linecap:butt;stroke-linejoin:miter;stroke-opacity:1"
       x="10.086681"
       y="24.871889"
       id="text839"><tspan
         sodipodi:role="line"
         id="tspan837"
         x="10.086681"
         y="24.871889"
         style="fill:#000000;fill-opacity:1;stroke:none;stroke-width:0.264583px"><tspan
   style="font-style:normal;font-variant:normal;font-weight:normal;font-stretch:normal;font-family:serif;-inkscape-font-specification:serif"
   id="tspan895">@</tspan>nodefunallowed Summing two random </tspan><tspan
         sodipodi:role="line"
         x="10.086681"
         y="29.944019"
         style="fill:#000000;fill-opacity:1;stroke:none;stroke-width:0.264583px"
         id="tspan841">integers produces a <tspan
   style="font-style:italic"
   id="tspan843">Bates distribution</tspan>, not</tspan><tspan
         sodipodi:role="line"
         x="10.086681"
         y="34.944008"
         style="fill:#000000;fill-opacity:1;stroke:none;stroke-width:0.264583px"
         id="tspan901"> a <tspan
   style="font-style:italic"
   id="tspan845">uniform</tspan> one; there will be more sums</tspan><tspan
         sodipodi:role="line"
         x="10.086681"
         y="39.944"
         style="fill:#000000;fill-opacity:1;stroke:none;stroke-width:0.264583px"
         id="tspan1071">around the mean.</tspan></text>
    <g
       id="g970">
      <path
         sodipodi:nodetypes="ccccc"
         id="path835"
         d="M 5,5 H 105 V 85 H 5 Z"
         style="fill:none;fill-rule:evenodd;stroke:#000000;stroke-width:0.5;stroke-linecap:butt;stroke-linejoin:miter;stroke-miterlimit:4;stroke-dasharray:none;stroke-opacity:1" />
      <text
         id="text849"
         y="14.912087"
         x="10.339337"
         style="font-size:4.99999px;line-height:0%;font-family:Charter;-inkscape-font-specification:Charter;letter-spacing:0px;word-spacing:0px;writing-mode:lr-tb;fill:none;stroke:#000000;stroke-width:0.264583px;stroke-linecap:butt;stroke-linejoin:miter;stroke-opacity:1"
         xml:space="preserve"><tspan
           style="font-weight:bold;fill:#000000;fill-opacity:1;stroke:#000000;stroke-width:0.264583px;stroke-opacity:1"
           y="14.912087"
           x="10.339337"
           id="tspan847"
           sodipodi:role="line">Alyssa P. Hacker</tspan></text>
      <text
         id="text855"
         y="14.695431"
         x="89.850143"
         style="font-size:4.99999px;line-height:0%;font-family:Charter;-inkscape-font-specification:Charter;letter-spacing:0px;word-spacing:0px;writing-mode:lr-tb;fill:none;stroke:#000000;stroke-width:0.264583px;stroke-linecap:butt;stroke-linejoin:miter;stroke-opacity:1"
         xml:space="preserve"><tspan
           style="font-style:italic;fill:#000000;fill-opacity:0.533333;stroke:none;stroke-width:0.264583px;stroke-opacity:1"
           y="14.695431"
           x="89.850143"
           id="tspan853"
           sodipodi:role="line">9:15</tspan></text>
    </g>
    <text
       xml:space="preserve"
       style="font-size:3.75px;line-height:100%;font-family:Charter;-inkscape-font-specification:Charter;letter-spacing:0px;word-spacing:0px;writing-mode:lr-tb;fill:none;stroke:#000000;stroke-width:0.162163px;stroke-linecap:butt;stroke-linejoin:miter;stroke-opacity:1"
       x="92.49353"
       y="47.779125"
       id="text859"><tspan
         sodipodi:role="line"
         id="tspan857"
         x="92.49353"
         y="47.779125"
         style="font-size:3.75px;text-align:end;text-anchor:end;fill:#000000;fill-opacity:1;stroke:none;stroke-width:0.162163px">X <tspan
   style="font-style:normal;font-variant:normal;font-weight:normal;font-stretch:normal;font-size:3.75px;font-family:serif;-inkscape-font-specification:serif;text-align:end;text-anchor:end;stroke-width:0.162163px"
   id="tspan867">~</tspan> uniform(1, 5)</tspan><tspan
         sodipodi:role="line"
         x="92.49353"
         y="51.583229"
         style="font-size:3.75px;text-align:end;text-anchor:end;fill:#000000;fill-opacity:1;stroke:none;stroke-width:0.162163px"
         id="tspan865">Y <tspan
   style="font-style:normal;font-variant:normal;font-weight:normal;font-stretch:normal;font-size:3.75px;font-family:serif;-inkscape-font-specification:serif;text-align:end;text-anchor:end;stroke-width:0.162163px"
   id="tspan871">~</tspan> uniform(1, 5)</tspan><tspan
         sodipodi:role="line"
         x="92.49353"
         y="55.387333"
         style="font-size:3.75px;text-align:end;text-anchor:end;fill:#000000;fill-opacity:1;stroke:none;stroke-width:0.162163px"
         id="tspan873">X + Y</tspan><tspan
         sodipodi:role="line"
         x="92.49353"
         y="59.137333"
         style="font-size:3.75px;text-align:end;text-anchor:end;fill:#000000;fill-opacity:1;stroke:none;stroke-width:0.162163px"
         id="tspan861" /></text>
    <g
       id="g1069"
       transform="translate(-15,5)">
      <g
         transform="translate(-2.5)"
         id="g1046">
        <rect
           style="opacity:1;fill:#333333;fill-opacity:1;stroke:none;stroke-width:0.499999;stroke-linejoin:bevel;stroke-miterlimit:4;stroke-dasharray:none;stroke-opacity:1"
           id="rect912"
           width="5"
           height="10"
           x="35"
           y="54.999996" />
        <rect
           style="opacity:1;fill:#333333;fill-opacity:1;stroke:none;stroke-width:0.499999;stroke-linejoin:bevel;stroke-miterlimit:4;stroke-dasharray:none;stroke-opacity:1"
           id="rect914"
           width="6.25"
           height="5"
           x="73.75"
           y="60" />
        <rect
           style="opacity:1;fill:#333333;fill-opacity:1;stroke:none;stroke-width:0.499999;stroke-linejoin:bevel;stroke-miterlimit:4;stroke-dasharray:none;stroke-opacity:1"
           id="rect918"
           width="7.5"
           height="8.75"
           x="38.75"
           y="56.25" />
        <rect
           style="opacity:1;fill:#333333;fill-opacity:1;stroke:none;stroke-width:0.499999;stroke-linejoin:bevel;stroke-miterlimit:4;stroke-dasharray:none;stroke-opacity:1"
           id="rect920"
           width="6.25"
           height="12.5"
           x="45"
           y="52.5" />
        <rect
           style="opacity:1;fill:#333333;fill-opacity:1;stroke:none;stroke-width:0.499999;stroke-linejoin:bevel;stroke-miterlimit:4;stroke-dasharray:none;stroke-opacity:1"
           id="rect922"
           width="5"
           height="23.75"
           x="54.999996"
           y="41.25" />
        <rect
           style="opacity:1;fill:#333333;fill-opacity:1;stroke:none;stroke-width:0.499999;stroke-linejoin:bevel;stroke-miterlimit:4;stroke-dasharray:none;stroke-opacity:1"
           id="rect924"
           width="6.25"
           height="22.5"
           x="50"
           y="42.5" />
        <rect
           style="opacity:1;fill:#333333;fill-opacity:1;stroke:none;stroke-width:0.499999;stroke-linejoin:bevel;stroke-miterlimit:4;stroke-dasharray:none;stroke-opacity:1"
           id="rect926"
           width="6.25"
           height="21.25"
           x="58.75"
           y="43.75" />
        <rect
           style="opacity:1;fill:#333333;fill-opacity:1;stroke:none;stroke-width:0.499999;stroke-linejoin:bevel;stroke-miterlimit:4;stroke-dasharray:none;stroke-opacity:1"
           id="rect928"
           width="6.25"
           height="13.75"
           x="63.75"
           y="51.25" />
        <rect
           style="opacity:1;fill:#333333;fill-opacity:1;stroke:none;stroke-width:0.447213;stroke-linejoin:bevel;stroke-miterlimit:4;stroke-dasharray:none;stroke-opacity:1"
           id="rect930"
           width="6.25"
           height="8.75"
           x="68.75"
           y="56.25" />
        <path
           style="fill:none;fill-rule:evenodd;stroke:#000000;stroke-width:0.5;stroke-linecap:butt;stroke-linejoin:miter;stroke-miterlimit:4;stroke-dasharray:none;stroke-opacity:1"
           d="M 80,65 H 35 V 40"
           id="path875"
           sodipodi:nodetypes="ccc" />
        <path
           id="path903"
           d="m 35,64.999999 22.499999,-25 22.499999,25"
           style="fill:none;fill-rule:evenodd;stroke:#000000;stroke-width:0.264583px;stroke-linecap:butt;stroke-linejoin:miter;stroke-opacity:1" />
      </g>
      <g
         transform="translate(3.124999)"
         id="g963">
        <g
           id="g945">
          <rect
             y="68.75"
             x="33.75"
             height="7.5"
             width="12.5"
             id="rect936"
             style="opacity:0.99;fill:none;fill-opacity:0.8;stroke:#000000;stroke-width:0.499999;stroke-linecap:square;stroke-linejoin:miter;stroke-miterlimit:4;stroke-dasharray:none;stroke-opacity:1" />
          <text
             id="text940"
             y="73.667496"
             x="35.107513"
             style="font-size:4.99999px;line-height:0%;font-family:Charter;-inkscape-font-specification:Charter;letter-spacing:0px;word-spacing:0px;writing-mode:lr-tb;fill:#000000;fill-opacity:1;stroke:none;stroke-width:0.264583px;stroke-linecap:butt;stroke-linejoin:miter;stroke-opacity:1"
             xml:space="preserve"><tspan
               style="fill:#000000;fill-opacity:1;stroke:none;stroke-width:0.264583px"
               y="73.667496"
               x="35.107513"
               id="tspan938"
               sodipodi:role="line">Step</tspan></text>
        </g>
        <g
           id="g953"
           transform="translate(16.25)">
          <rect
             style="opacity:0.99;fill:none;fill-opacity:0.8;stroke:#000000;stroke-width:0.499999;stroke-linecap:square;stroke-linejoin:miter;stroke-miterlimit:4;stroke-dasharray:none;stroke-opacity:1"
             id="rect947"
             width="15"
             height="7.5"
             x="33.75"
             y="68.75"
             ry="1.4210855e-14" />
          <text
             xml:space="preserve"
             style="font-size:4.99999px;line-height:0%;font-family:Charter;-inkscape-font-specification:Charter;letter-spacing:0px;word-spacing:0px;writing-mode:lr-tb;fill:#000000;fill-opacity:1;stroke:none;stroke-width:0.264583px;stroke-linecap:butt;stroke-linejoin:miter;stroke-opacity:1"
             x="35.280525"
             y="73.705093"
             id="text951"><tspan
               sodipodi:role="line"
               id="tspan949"
               x="35.280525"
               y="73.705093"
               style="fill:#000000;fill-opacity:1;stroke:none;stroke-width:0.264583px">Reset</tspan></text>
        </g>
      </g>
    </g>
    <g
       id="g1091"
       transform="translate(105,-80)">
      <g
         transform="translate(0,80)"
         id="g982">
        <path
           sodipodi:nodetypes="ccccc"
           id="path972"
           d="M 5,5 H 105 V 60 H 5 Z"
           style="fill:none;fill-rule:evenodd;stroke:#000000;stroke-width:0.5;stroke-linecap:butt;stroke-linejoin:miter;stroke-miterlimit:4;stroke-dasharray:none;stroke-opacity:1" />
        <text
           id="text976"
           y="14.912087"
           x="10.339337"
           style="font-size:4.99999px;line-height:0%;font-family:Charter;-inkscape-font-specification:Charter;letter-spacing:0px;word-spacing:0px;writing-mode:lr-tb;fill:none;stroke:#000000;stroke-width:0.264583px;stroke-linecap:butt;stroke-linejoin:miter;stroke-opacity:1"
           xml:space="preserve"><tspan
             style="font-weight:bold;fill:#000000;fill-opacity:1;stroke:#000000;stroke-width:0.264583px;stroke-opacity:1"
             y="14.912087"
             x="10.339337"
             id="tspan974"
             sodipodi:role="line">Alyssa P. Hacker</tspan></text>
        <text
           id="text980"
           y="14.695431"
           x="89.850143"
           style="font-size:4.99999px;line-height:0%;font-family:Charter;-inkscape-font-specification:Charter;letter-spacing:0px;word-spacing:0px;writing-mode:lr-tb;fill:none;stroke:#000000;stroke-width:0.264583px;stroke-linecap:butt;stroke-linejoin:miter;stroke-opacity:1"
           xml:space="preserve"><tspan
             style="font-style:italic;fill:#000000;fill-opacity:0.533333;stroke:none;stroke-width:0.264583px;stroke-opacity:1"
             y="14.695431"
             x="89.850143"
             id="tspan978"
             sodipodi:role="line">9:15</tspan></text>
      </g>
      <text
         xml:space="preserve"
         style="font-size:4.99999px;line-height:100%;font-family:Charter;-inkscape-font-specification:Charter;letter-spacing:0px;word-spacing:0px;writing-mode:lr-tb;fill:none;stroke:#000000;stroke-width:0.264583px;stroke-linecap:butt;stroke-linejoin:miter;stroke-opacity:1"
         x="9.8955946"
         y="105.06341"
         id="text996"><tspan
           sodipodi:role="line"
           id="tspan986"
           x="9.8955946"
           y="105.06341"
           style="fill:#000000;fill-opacity:1;stroke:none;stroke-width:0.264583px"><tspan
   style="font-style:normal;font-variant:normal;font-weight:normal;font-stretch:normal;font-family:serif;-inkscape-font-specification:serif"
   id="tspan984">@</tspan>nodefunallowed Summing two random </tspan><tspan
           sodipodi:role="line"
           x="9.8955946"
           y="110.13554"
           style="fill:#000000;fill-opacity:1;stroke:none;stroke-width:0.264583px"
           id="tspan990">integers produces a <tspan
   style="font-style:italic"
   id="tspan988">Bates distribution</tspan>, not</tspan><tspan
           sodipodi:role="line"
           x="9.8955946"
           y="115.13553"
           style="fill:#000000;fill-opacity:1;stroke:none;stroke-width:0.264583px"
           id="tspan994">a <tspan
   style="font-style:italic"
   id="tspan992">uniform</tspan> one. If you test with enough</tspan><tspan
           id="tspan1008"
           sodipodi:role="line"
           x="9.8955946"
           y="120.13552"
           style="fill:#000000;fill-opacity:1;stroke:none;stroke-width:0.264583px">integers, you'll see there are more sums </tspan><tspan
           id="tspan1010"
           sodipodi:role="line"
           x="9.8955946"
           y="125.13551"
           style="fill:#000000;fill-opacity:1;stroke:none;stroke-width:0.264583px">around the mean. There are some </tspan><tspan
           id="tspan1029"
           sodipodi:role="line"
           x="9.8955946"
           y="130.1355"
           style="fill:#000000;fill-opacity:1;stroke:none;stroke-width:0.264583px">graphs of that distribution with different</tspan><tspan
           id="tspan1002"
           sodipodi:role="line"
           x="9.8955946"
           y="135.13548"
           style="fill:#000000;fill-opacity:1;stroke:none;stroke-width:0.264583px">parameters on <tspan
   style="fill:#212100;fill-opacity:1"
   id="tspan1095">en.wikipedia.org/wiki/Ba… </tspan></tspan></text>
    </g>
  </g>
</svg>
